…
library(tidyverse)
library(doParallel)
source("R/GetPK.R")
source("R/masta-fpca-main.R")
source("R/masta-fpca-kern.R")
url <- "data-raw/long/"
follow_up_train <- read_csv(paste0(url, "follow_up_train.csv"))
follow_up_valid <- read_csv(paste0(url, "follow_up_valid.csv"))
time_code1 <- read_csv(paste0(url, "time_code1.csv"))
time_code2 <- read_csv(paste0(url, "time_code2.csv"))
time_code3 <- read_csv(paste0(url, "time_code3.csv"))
follow_up_train
```

    ## # A tibble: 20,600 x 2
    ##       id fu_time
    ##    <dbl>   <dbl>
    ##  1     1   49.4 
    ##  2     2   13.9 
    ##  3     3   12.6 
    ##  4     4   14.9 
    ##  5     5   80.7 
    ##  6     6   42.6 
    ##  7     7   13.7 
    ##  8     8   21.0 
    ##  9     9    5.16
    ## 10    10    6.60
    ## # … with 20,590 more rows

``` r
follow_up_valid
```

    ## # A tibble: 500 x 2
    ##       id fu_time
    ##    <dbl>   <dbl>
    ##  1 90001   71.7 
    ##  2 90002   70.4 
    ##  3 90003   14.9 
    ##  4 90004   33.8 
    ##  5 90005   98.6 
    ##  6 90006   17.6 
    ##  7 90007   13.9 
    ##  8 90008    1.45
    ##  9 90009    5.55
    ## 10 90010    7.62
    ## # … with 490 more rows

``` r
time_code1
```

    ## # A tibble: 168,374 x 2
    ##       id month
    ##    <dbl> <dbl>
    ##  1     4     1
    ##  2     4     1
    ##  3     4     1
    ##  4     4     2
    ##  5     5     4
    ##  6     5     4
    ##  7     5     4
    ##  8     5     5
    ##  9     5     5
    ## 10     5     5
    ## # … with 168,364 more rows

``` r
time_code2
```

    ## # A tibble: 68,242 x 2
    ##       id month
    ##    <dbl> <dbl>
    ##  1     1    11
    ##  2     5     1
    ##  3     5     2
    ##  4     5     4
    ##  5     6     2
    ##  6     6    11
    ##  7     6    22
    ##  8     6    22
    ##  9     6    25
    ## 10     6    29
    ## # … with 68,232 more rows

``` r
time_code3
```

    ## # A tibble: 21,501 x 2
    ##       id month
    ##    <dbl> <dbl>
    ##  1     6    37
    ##  2     6    37
    ##  3     6    38
    ##  4     6    38
    ##  5     6    39
    ##  6     6    39
    ##  7     6    40
    ##  8     6    40
    ##  9     6    41
    ## 10     6    41
    ## # … with 21,491 more rows
…
